<?xml version="1.0" encoding="UTF-8" standalone="no"?>
<graphml xmlns="http://graphml.graphdrawing.org/xmlns" xmlns:java="http://www.yworks.com/xml/yfiles-common/1.0/java" xmlns:sys="http://www.yworks.com/xml/yfiles-common/markup/primitives/2.0" xmlns:x="http://www.yworks.com/xml/yfiles-common/markup/2.0" xmlns:xsi="http://www.w3.org/2001/XMLSchema-instance" xmlns:y="http://www.yworks.com/xml/graphml" xmlns:yed="http://www.yworks.com/xml/yed/3" xsi:schemaLocation="http://graphml.graphdrawing.org/xmlns http://www.yworks.com/xml/schema/graphml/1.1/ygraphml.xsd">
  <!--Created by yEd 3.18.1-->
  <key attr.name="Description" attr.type="string" for="graph" id="d0"/>
  <key for="port" id="d1" yfiles.type="portgraphics"/>
  <key for="port" id="d2" yfiles.type="portgeometry"/>
  <key for="port" id="d3" yfiles.type="portuserdata"/>
  <key attr.name="url" attr.type="string" for="node" id="d4"/>
  <key attr.name="description" attr.type="string" for="node" id="d5"/>
  <key for="node" id="d6" yfiles.type="nodegraphics"/>
  <key for="graphml" id="d7" yfiles.type="resources"/>
  <key attr.name="url" attr.type="string" for="edge" id="d8"/>
  <key attr.name="description" attr.type="string" for="edge" id="d9"/>
  <key for="edge" id="d10" yfiles.type="edgegraphics"/>
  <graph edgedefault="directed" id="G">
    <data key="d0" xml:space="preserve"/>
    <node id="n0">
      <data key="d6">
        <y:ShapeNode>
          <y:Geometry height="23.551999999999992" width="50.60864000000004" x="1214.8545871953093" y="896.8581399672132"/>
          <y:Fill color="#C0C0C0" transparent="false"/>
          <y:BorderStyle color="#000000" raised="false" type="dashed" width="1.0"/>
          <y:NodeLabel alignment="center" autoSizePolicy="content" fontFamily="Dialog" fontSize="12" fontStyle="plain" hasBackgroundColor="false" hasLineColor="false" hasText="false" height="4.0" horizontalTextPosition="center" iconTextGap="4" modelName="custom" textColor="#000000" verticalTextPosition="bottom" visible="true" width="4.0" x="23.30431999999996" y="9.775999999999954">
            <y:LabelModel>
              <y:SmartNodeLabelModel distance="4.0"/>
            </y:LabelModel>
            <y:ModelParameter>
              <y:SmartNodeLabelModelParameter labelRatioX="0.0" labelRatioY="0.0" nodeRatioX="0.0" nodeRatioY="0.0" offsetX="0.0" offsetY="0.0" upX="0.0" upY="-1.0"/>
            </y:ModelParameter>
          </y:NodeLabel>
          <y:Shape type="rectangle"/>
        </y:ShapeNode>
      </data>
    </node>
    <node id="n1">
      <data key="d6">
        <y:ShapeNode>
          <y:Geometry height="91.71033600000013" width="149.86700799999983" x="1125.2370831953122" y="890.1295639672132"/>
          <y:Fill hasColor="false" transparent="false"/>
          <y:BorderStyle color="#000000" raised="false" type="line" width="1.0"/>
          <y:NodeLabel alignment="center" autoSizePolicy="content" fontFamily="Dialog" fontSize="12" fontStyle="plain" hasBackgroundColor="false" hasLineColor="false" height="17.96875" horizontalTextPosition="center" iconTextGap="4" modelName="internal" modelPosition="b" textColor="#000000" verticalTextPosition="bottom" visible="true" width="36.33203125" x="56.76748837499986" xml:space="preserve" y="69.7415860000001">Linux</y:NodeLabel>
          <y:Shape type="rectangle"/>
        </y:ShapeNode>
      </data>
    </node>
    <node id="n2">
      <data key="d6">
        <y:ShapeNode>
          <y:Geometry height="54.39779596373569" width="239.25811199999953" x="1125.2370831953122" y="999.6117282151723"/>
          <y:Fill color="#C0C0C0" transparent="false"/>
          <y:BorderStyle color="#000000" raised="false" type="line" width="1.0"/>
          <y:NodeLabel alignment="center" autoSizePolicy="content" fontFamily="Dialog" fontSize="12" fontStyle="plain" hasBackgroundColor="false" hasLineColor="false" height="17.96875" horizontalTextPosition="center" iconTextGap="4" modelName="internal" modelPosition="t" textColor="#000000" verticalTextPosition="bottom" visible="true" width="69.021484375" x="85.11831381249976" xml:space="preserve" y="4.0">Hypervisor</y:NodeLabel>
          <y:Shape type="rectangle"/>
        </y:ShapeNode>
      </data>
    </node>
    <node id="n3">
      <data key="d6">
        <y:ShapeNode>
          <y:Geometry height="91.71033600000007" width="68.15590399999962" x="1296.339291195312" y="890.1295639672132"/>
          <y:Fill color="#C0C0C0" transparent="false"/>
          <y:BorderStyle color="#000000" raised="false" type="line" width="1.0"/>
          <y:NodeLabel alignment="center" autoSizePolicy="content" fontFamily="Dialog" fontSize="12" fontStyle="plain" hasBackgroundColor="false" hasLineColor="false" height="31.9375" horizontalTextPosition="center" iconTextGap="4" modelName="custom" textColor="#000000" verticalTextPosition="bottom" visible="true" width="60.05078125" x="4.0" xml:space="preserve" y="47.06968603278665">MProsper
VMI<y:LabelModel><y:SmartNodeLabelModel distance="4.0"/></y:LabelModel><y:ModelParameter><y:SmartNodeLabelModelParameter labelRatioX="-0.5" labelRatioY="0.5" nodeRatioX="-0.5" nodeRatioY="0.36148616915749376" offsetX="4.0" offsetY="0.0" upX="0.0" upY="-1.0"/></y:ModelParameter></y:NodeLabel>
          <y:Shape type="roundrectangle"/>
        </y:ShapeNode>
      </data>
    </node>
    <node id="n4">
      <data key="d6">
        <y:ShapeNode>
          <y:Geometry height="23.551999999999992" width="71.38451199999474" x="1194.0787151953148" y="896.8581399672133"/>
          <y:Fill hasColor="false" transparent="false"/>
          <y:BorderStyle color="#000000" raised="false" type="line" width="1.0"/>
          <y:NodeLabel alignment="center" autoSizePolicy="content" fontFamily="Dialog" fontSize="12" fontStyle="plain" hasBackgroundColor="false" hasLineColor="false" height="17.96875" horizontalTextPosition="center" iconTextGap="4" modelName="custom" textColor="#000000" verticalTextPosition="bottom" visible="true" width="27.443359375" x="21.970576312497315" xml:space="preserve" y="2.7916249999999536">App<y:LabelModel><y:SmartNodeLabelModel distance="4.0"/></y:LabelModel><y:ModelParameter><y:SmartNodeLabelModelParameter labelRatioX="0.0" labelRatioY="0.0" nodeRatioX="0.0" nodeRatioY="0.0" offsetX="0.0" offsetY="0.0" upX="0.0" upY="-1.0"/></y:ModelParameter></y:NodeLabel>
          <y:Shape type="rectangle"/>
        </y:ShapeNode>
      </data>
    </node>
    <node id="n5">
      <data key="d6">
        <y:ShapeNode>
          <y:Geometry height="23.551999999999992" width="73.13663999999983" x="1193.2026511953122" y="927.5730199672133"/>
          <y:Fill color="#C0C0C0" transparent="false"/>
          <y:BorderStyle color="#000000" raised="false" type="line" width="1.0"/>
          <y:NodeLabel alignment="center" autoSizePolicy="content" fontFamily="Dialog" fontSize="12" fontStyle="plain" hasBackgroundColor="false" hasLineColor="false" height="17.96875" horizontalTextPosition="center" iconTextGap="4" modelName="custom" textColor="#000000" verticalTextPosition="bottom" visible="true" width="76.673828125" x="-1.7685940625001422" xml:space="preserve" y="2.7916249999999536">Page Tables<y:LabelModel><y:SmartNodeLabelModel distance="4.0"/></y:LabelModel><y:ModelParameter><y:SmartNodeLabelModelParameter labelRatioX="0.0" labelRatioY="0.0" nodeRatioX="0.0" nodeRatioY="0.0" offsetX="0.0" offsetY="0.0" upX="0.0" upY="-1.0"/></y:ModelParameter></y:NodeLabel>
          <y:Shape type="rectangle"/>
        </y:ShapeNode>
      </data>
    </node>
    <node id="n6">
      <data key="d6">
        <y:SVGNode>
          <y:Geometry height="23.62155574962537" width="40.06607519531235" x="1324.4291199999993" y="1070.1273503403597"/>
          <y:Fill color="#CCCCFF" transparent="false"/>
          <y:BorderStyle color="#000000" type="line" width="1.0"/>
          <y:NodeLabel alignment="center" autoSizePolicy="content" fontFamily="Dialog" fontSize="12" fontStyle="plain" hasBackgroundColor="false" hasLineColor="false" hasText="false" height="4.0" horizontalTextPosition="center" iconTextGap="4" modelName="sandwich" modelPosition="s" textColor="#000000" verticalTextPosition="bottom" visible="true" width="4.0" x="18.033037597656175" y="27.62155574962526"/>
          <y:SVGNodeProperties usingVisualBounds="true"/>
          <y:SVGModel svgBoundsPolicy="0">
            <y:SVGContent refid="1"/>
          </y:SVGModel>
        </y:SVGNode>
      </data>
    </node>
    <node id="n7">
      <data key="d6">
        <y:ShapeNode>
          <y:Geometry height="23.551999999999992" width="56.95667200000014" x="1142.9245711953165" y="1070.1621282151723"/>
          <y:Fill hasColor="false" transparent="false"/>
          <y:BorderStyle color="#000000" raised="false" type="line" width="1.0"/>
          <y:NodeLabel alignment="center" autoSizePolicy="content" fontFamily="Dialog" fontSize="12" fontStyle="plain" hasBackgroundColor="false" hasLineColor="false" height="17.96875" horizontalTextPosition="center" iconTextGap="4" modelName="custom" textColor="#000000" verticalTextPosition="bottom" visible="true" width="24.89453125" x="16.031070375000127" xml:space="preserve" y="2.7916250000000673">NIC<y:LabelModel><y:SmartNodeLabelModel distance="4.0"/></y:LabelModel><y:ModelParameter><y:SmartNodeLabelModelParameter labelRatioX="0.0" labelRatioY="0.0" nodeRatioX="0.0" nodeRatioY="0.0" offsetX="0.0" offsetY="0.0" upX="0.0" upY="-1.0"/></y:ModelParameter></y:NodeLabel>
          <y:Shape type="rectangle"/>
        </y:ShapeNode>
      </data>
    </node>
    <node id="n8">
      <data key="d6">
        <y:ShapeNode>
          <y:Geometry height="23.551999999999992" width="40.64716800000008" x="1234.4569231953117" y="958.2878999672133"/>
          <y:Fill color="#C0C0C0" transparent="false"/>
          <y:BorderStyle color="#000000" raised="false" type="dashed" width="1.0"/>
          <y:NodeLabel alignment="center" autoSizePolicy="content" fontFamily="Dialog" fontSize="12" fontStyle="plain" hasBackgroundColor="false" hasLineColor="false" hasText="false" height="4.0" horizontalTextPosition="center" iconTextGap="4" modelName="custom" textColor="#000000" verticalTextPosition="bottom" visible="true" width="4.0" x="18.323583999999983" y="9.775999999999954">
            <y:LabelModel>
              <y:SmartNodeLabelModel distance="4.0"/>
            </y:LabelModel>
            <y:ModelParameter>
              <y:SmartNodeLabelModelParameter labelRatioX="0.0" labelRatioY="0.0" nodeRatioX="0.0" nodeRatioY="0.0" offsetX="0.0" offsetY="0.0" upX="0.0" upY="-1.0"/>
            </y:ModelParameter>
          </y:NodeLabel>
          <y:Shape type="rectangle"/>
        </y:ShapeNode>
      </data>
    </node>
    <node id="n9">
      <data key="d6">
        <y:ShapeNode>
          <y:Geometry height="30.719999999999885" width="50.60864000000004" x="1305.1129231953119" y="893.5457480397426"/>
          <y:Fill color="#C0C0C0" transparent="false"/>
          <y:BorderStyle color="#000000" raised="false" type="line" width="1.0"/>
          <y:NodeLabel alignment="center" autoSizePolicy="content" fontFamily="Dialog" fontSize="12" fontStyle="plain" hasBackgroundColor="false" hasLineColor="false" height="31.9375" horizontalTextPosition="center" iconTextGap="4" modelName="custom" textColor="#000000" verticalTextPosition="bottom" visible="true" width="46.580078125" x="2.0142809374999615" xml:space="preserve" y="-0.6087500000001">Golden
Image<y:LabelModel><y:SmartNodeLabelModel distance="4.0"/></y:LabelModel><y:ModelParameter><y:SmartNodeLabelModelParameter labelRatioX="0.0" labelRatioY="0.0" nodeRatioX="0.0" nodeRatioY="0.0" offsetX="0.0" offsetY="0.0" upX="0.0" upY="-1.0"/></y:ModelParameter></y:NodeLabel>
          <y:Shape type="roundrectangle"/>
        </y:ShapeNode>
      </data>
    </node>
    <node id="n10">
      <data key="d6">
        <y:ShapeNode>
          <y:Geometry height="23.551999999999992" width="73.13663999999983" x="1162.7340751953232" y="1027.2362025883187"/>
          <y:Fill color="#C0C0C0" transparent="false"/>
          <y:BorderStyle color="#000000" raised="false" type="line" width="1.0"/>
          <y:NodeLabel alignment="center" autoSizePolicy="content" fontFamily="Dialog" fontSize="12" fontStyle="plain" hasBackgroundColor="false" hasLineColor="false" height="17.96875" horizontalTextPosition="center" iconTextGap="4" modelName="custom" textColor="#000000" verticalTextPosition="bottom" visible="true" width="49.615234375" x="11.760702812499858" xml:space="preserve" y="2.7916250000000673">Monitor<y:LabelModel><y:SmartNodeLabelModel distance="4.0"/></y:LabelModel><y:ModelParameter><y:SmartNodeLabelModelParameter labelRatioX="0.0" labelRatioY="0.0" nodeRatioX="0.0" nodeRatioY="0.0" offsetX="0.0" offsetY="0.0" upX="0.0" upY="-1.0"/></y:ModelParameter></y:NodeLabel>
          <y:Shape type="rectangle"/>
        </y:ShapeNode>
      </data>
    </node>
    <node id="n11">
      <data key="d6">
        <y:ShapeNode>
          <y:Geometry height="23.551999999999992" width="56.95667200000014" x="1130.50625652865" y="927.5730199672131"/>
          <y:Fill hasColor="false" transparent="false"/>
          <y:BorderStyle color="#000000" raised="false" type="line" width="1.0"/>
          <y:NodeLabel alignment="center" autoSizePolicy="content" fontFamily="Dialog" fontSize="12" fontStyle="plain" hasBackgroundColor="false" hasLineColor="false" height="17.96875" horizontalTextPosition="center" iconTextGap="4" modelName="custom" textColor="#000000" verticalTextPosition="bottom" visible="true" width="48.513671875" x="4.221500062500127" xml:space="preserve" y="2.7916249999999536">Frames<y:LabelModel><y:SmartNodeLabelModel distance="4.0"/></y:LabelModel><y:ModelParameter><y:SmartNodeLabelModelParameter labelRatioX="0.0" labelRatioY="0.0" nodeRatioX="0.0" nodeRatioY="0.0" offsetX="0.0" offsetY="0.0" upX="0.0" upY="-1.0"/></y:ModelParameter></y:NodeLabel>
          <y:Shape type="rectangle"/>
        </y:ShapeNode>
      </data>
    </node>
    <edge id="e0" source="n10" target="n2">
      <data key="d10">
        <y:PolyLineEdge>
          <y:Path sx="0.0" sy="0.0" tx="0.0" ty="0.0"/>
          <y:LineStyle color="#000000" type="line" width="1.0"/>
          <y:Arrows source="none" target="standard"/>
          <y:BendStyle smoothed="false"/>
        </y:PolyLineEdge>
      </data>
    </edge>
    <edge id="e1" source="n1" target="n3">
      <data key="d10">
        <y:PolyLineEdge>
          <y:Path sx="-13.033468501336529" sy="13.510871468640184" tx="-14.2055146963271" ty="37.193841675059275">
            <y:Point x="1187.1371186939755" y="1004.6163976422724"/>
            <y:Point x="1316.2117284989847" y="1004.6163976422724"/>
          </y:Path>
          <y:LineStyle color="#000000" type="dashed" width="1.0"/>
          <y:Arrows source="none" target="standard"/>
          <y:EdgeLabel alignment="center" configuration="AutoFlippingLabel" distance="2.0" fontFamily="Dialog" fontSize="12" fontStyle="plain" hasBackgroundColor="false" hasLineColor="false" height="17.96875" horizontalTextPosition="center" iconTextGap="4" modelName="custom" preferredPlacement="anywhere" ratio="0.5" textColor="#000000" verticalTextPosition="bottom" visible="true" width="11.634765625" x="2.0706509205379007" xml:space="preserve" y="1.4620129696013464">3<y:LabelModel><y:SmartEdgeLabelModel autoRotationEnabled="false" defaultAngle="0.0" defaultDistance="10.0"/></y:LabelModel><y:ModelParameter><y:SmartEdgeLabelModelParameter angle="6.283185307179586" distance="7.88799999999992" distanceToCenter="true" position="left" ratio="-0.9618755812352902" segment="0"/></y:ModelParameter><y:PreferredPlacementDescriptor angle="0.0" angleOffsetOnRightSide="0" angleReference="absolute" angleRotationOnRightSide="co" distance="-1.0" frozen="true" placement="anywhere" side="anywhere" sideReference="relative_to_edge_flow"/></y:EdgeLabel>
          <y:BendStyle smoothed="false"/>
        </y:PolyLineEdge>
      </data>
    </edge>
    <edge id="e2" source="n7" target="n11">
      <data key="d10">
        <y:PolyLineEdge>
          <y:Path sx="-20.995570773341342" sy="-5.019121406351246" tx="-8.577256106674895" ty="-2.922813158391932"/>
          <y:LineStyle color="#000000" type="line" width="1.0"/>
          <y:Arrows source="none" target="standard"/>
          <y:EdgeLabel alignment="center" configuration="AutoFlippingLabel" distance="2.0" fontFamily="Dialog" fontSize="12" fontStyle="plain" hasBackgroundColor="false" hasLineColor="false" height="17.96875" horizontalTextPosition="center" iconTextGap="4" modelName="custom" preferredPlacement="anywhere" ratio="0.5" textColor="#000000" verticalTextPosition="bottom" visible="true" width="11.634765625" x="3.7026049766629967" xml:space="preserve" y="-15.766666143182192">2<y:LabelModel><y:SmartEdgeLabelModel autoRotationEnabled="false" defaultAngle="0.0" defaultDistance="10.0"/></y:LabelModel><y:ModelParameter><y:SmartEdgeLabelModelParameter angle="6.283185307179586" distance="9.519999999999982" distanceToCenter="true" position="right" ratio="-7.201820876020406" segment="-1"/></y:ModelParameter><y:PreferredPlacementDescriptor angle="0.0" angleOffsetOnRightSide="0" angleReference="absolute" angleRotationOnRightSide="co" distance="-1.0" frozen="true" placement="anywhere" side="anywhere" sideReference="relative_to_edge_flow"/></y:EdgeLabel>
          <y:BendStyle smoothed="false"/>
        </y:PolyLineEdge>
      </data>
    </edge>
    <edge id="e3" source="n7" target="n6">
      <data key="d10">
        <y:PolyLineEdge>
          <y:Path sx="0.0" sy="0.0" tx="-17.517221175680334" ty="0.0"/>
          <y:LineStyle color="#000000" type="line" width="1.0"/>
          <y:Arrows source="standard" target="none"/>
          <y:EdgeLabel alignment="center" configuration="AutoFlippingLabel" distance="2.0" fontFamily="Dialog" fontSize="12" fontStyle="plain" hasBackgroundColor="false" hasLineColor="false" height="17.96875" horizontalTextPosition="center" iconTextGap="4" modelName="custom" preferredPlacement="anywhere" ratio="0.5" textColor="#000000" verticalTextPosition="bottom" visible="true" width="11.634765625" x="67.72057319922033" xml:space="preserve" y="-16.872357136390292">1<y:LabelModel><y:SmartEdgeLabelModel autoRotationEnabled="false" defaultAngle="0.0" defaultDistance="10.0"/></y:LabelModel><y:ModelParameter><y:SmartEdgeLabelModelParameter angle="6.283185307179586" distance="7.88800000000016" distanceToCenter="true" position="left" ratio="0.6094515545286872" segment="-1"/></y:ModelParameter><y:PreferredPlacementDescriptor angle="0.0" angleOffsetOnRightSide="0" angleReference="absolute" angleRotationOnRightSide="co" distance="-1.0" frozen="true" placement="anywhere" side="anywhere" sideReference="relative_to_edge_flow"/></y:EdgeLabel>
          <y:BendStyle smoothed="false"/>
        </y:PolyLineEdge>
      </data>
    </edge>
    <edge id="e4" source="n11" target="n9">
      <data key="d10">
        <y:PolyLineEdge>
          <y:Path sx="-9.126538269665389" sy="-3.2807060369401597" tx="0.0" ty="0.0">
            <y:Point x="1149.8580542589848" y="875.5130499302728"/>
            <y:Point x="1330.4172431953118" y="875.5130499302728"/>
          </y:Path>
          <y:LineStyle color="#000000" type="line" width="1.0"/>
          <y:Arrows source="none" target="standard"/>
          <y:EdgeLabel alignment="center" configuration="AutoFlippingLabel" distance="2.0" fontFamily="Dialog" fontSize="12" fontStyle="plain" hasBackgroundColor="false" hasLineColor="false" height="17.96875" horizontalTextPosition="center" iconTextGap="4" modelName="custom" preferredPlacement="anywhere" ratio="0.5" textColor="#000000" verticalTextPosition="bottom" visible="true" width="11.634765625" x="88.69463921992224" xml:space="preserve" y="-69.66380294188207">4<y:LabelModel><y:SmartEdgeLabelModel autoRotationEnabled="false" defaultAngle="0.0" defaultDistance="10.0"/></y:LabelModel><y:ModelParameter><y:SmartEdgeLabelModelParameter angle="6.283185307179586" distance="8.61020248152989" distanceToCenter="true" position="left" ratio="0.5234405435512283" segment="1"/></y:ModelParameter><y:PreferredPlacementDescriptor angle="0.0" angleOffsetOnRightSide="0" angleReference="absolute" angleRotationOnRightSide="co" distance="-1.0" frozen="true" placement="anywhere" side="anywhere" sideReference="relative_to_edge_flow"/></y:EdgeLabel>
          <y:BendStyle smoothed="false"/>
        </y:PolyLineEdge>
      </data>
    </edge>
  </graph>
  <data key="d7">
    <y:Resources>
      <y:Resource id="1" xml:space="preserve">&lt;?xml version="1.0" encoding="iso-8859-1"?&gt;
&lt;!-- Generator: Adobe Illustrator 18.1.1, SVG Export Plug-In . SVG Version: 6.00 Build 0)  --&gt;
&lt;svg version="1.1" id="Capa_1" xmlns="http://www.w3.org/2000/svg" xmlns:xlink="http://www.w3.org/1999/xlink" x="0px" y="0px"
	 viewBox="0 0 195.974 195.974" style="enable-background:new 0 0 195.974 195.974;" xml:space="preserve"&gt;
&lt;g&gt;
	&lt;path style="fill:#010002;" d="M149.685,78.193c-7.061-11.774-19.791-19.029-33.562-19.029c-3.153,0-6.331,0.397-9.459,1.177
		C99.746,47.89,86.787,40.217,72.497,40.217c-21.036,0-38.251,16.688-39.081,37.714C14.251,80.719,0,97.082,0,116.637
		c0,21.57,17.551,39.12,39.128,39.12h117.719c21.573,0,39.128-17.547,39.128-39.12C195.971,92.715,174.204,73.612,149.685,78.193z
		 M156.843,152.107H39.128c-19.558,0-35.474-15.908-35.474-35.466c0-18.224,13.65-33.387,31.748-35.273l1.628-0.376v-1.646
		c0-19.558,15.908-35.47,35.47-35.47c13.406,0,25.517,7.451,31.612,19.444l0.684,1.349l1.453-0.422
		c3.26-0.945,6.582-1.424,9.878-1.424c12.887,0,24.784,7.015,31.039,18.313l0.662,1.192l1.328-0.293
		c22.74-5.018,43.168,12.537,43.168,34.611C192.317,136.199,176.405,152.107,156.843,152.107z"/&gt;
&lt;/g&gt;
&lt;g&gt;
&lt;/g&gt;
&lt;g&gt;
&lt;/g&gt;
&lt;g&gt;
&lt;/g&gt;
&lt;g&gt;
&lt;/g&gt;
&lt;g&gt;
&lt;/g&gt;
&lt;g&gt;
&lt;/g&gt;
&lt;g&gt;
&lt;/g&gt;
&lt;g&gt;
&lt;/g&gt;
&lt;g&gt;
&lt;/g&gt;
&lt;g&gt;
&lt;/g&gt;
&lt;g&gt;
&lt;/g&gt;
&lt;g&gt;
&lt;/g&gt;
&lt;g&gt;
&lt;/g&gt;
&lt;g&gt;
&lt;/g&gt;
&lt;g&gt;
&lt;/g&gt;
&lt;/svg&gt;
</y:Resource>
    </y:Resources>
  </data>
</graphml>
